\relax 
\catcode`"\active
\select@language{portuguese}
\@writefile{toc}{\select@language{portuguese}}
\@writefile{lof}{\select@language{portuguese}}
\@writefile{lot}{\select@language{portuguese}}
\@writefile{toc}{\contentsline {section}{\numberline {1}Aspectos hist\IeC {\'o}ricos}{1}}
\@writefile{lof}{\contentsline {figure}{\numberline {1}{\ignorespaces ???}}{2}}
\newlabel{p_distr_lamina}{{1}{2}}
\@writefile{lof}{\contentsline {figure}{\numberline {2}{\ignorespaces ???}}{3}}
\newlabel{p_distr_lamina}{{2}{3}}
\@writefile{toc}{\contentsline {subsection}{\numberline {1.1}Galtonistas X Mendelistas}{3}}
\@writefile{toc}{\contentsline {subsection}{\numberline {1.2}A s\IeC {\'\i }ntese}{4}}
\@writefile{toc}{\contentsline {subsection}{\numberline {1.3}Os locos de caracteres quantitativos}{5}}
\@writefile{toc}{\contentsline {section}{\numberline {2}Conceitos b\IeC {\'a}sicos em Gen\IeC {\'e}tica quantitativa}{5}}
\@writefile{toc}{\contentsline {subsection}{\numberline {2.1}Gen\IeC {\'o}tipos, fen\IeC {\'o}tipos e ambiente}{5}}
\@writefile{toc}{\contentsline {subsection}{\numberline {2.2}Decomposi\IeC {\c c}\IeC {\~a}o das vari\IeC {\^a}ncias}{6}}
\@writefile{lof}{\contentsline {figure}{\numberline {3}{\ignorespaces ???}}{6}}
\newlabel{p_distr_lamina}{{3}{6}}
\@writefile{lof}{\contentsline {figure}{\numberline {4}{\ignorespaces ???}}{7}}
\newlabel{p_distr_lamina}{{4}{7}}
\@writefile{lof}{\contentsline {figure}{\numberline {5}{\ignorespaces ???}}{7}}
\newlabel{p_distr_lamina}{{5}{7}}
\@writefile{lof}{\contentsline {figure}{\numberline {6}{\ignorespaces ???}}{7}}
\newlabel{p_distr_lamina}{{6}{7}}
\@writefile{lof}{\contentsline {figure}{\numberline {7}{\ignorespaces ???}}{8}}
\newlabel{p_distr_lamina}{{7}{8}}
\@writefile{lof}{\contentsline {figure}{\numberline {8}{\ignorespaces ???}}{8}}
\newlabel{p_distr_lamina}{{8}{8}}
\@writefile{lof}{\contentsline {figure}{\numberline {9}{\ignorespaces ???}}{8}}
\newlabel{p_distr_lamina}{{9}{8}}
\@writefile{lof}{\contentsline {figure}{\numberline {10}{\ignorespaces ???}}{8}}
\newlabel{p_distr_lamina}{{10}{8}}
\@writefile{lof}{\contentsline {figure}{\numberline {11}{\ignorespaces ???}}{9}}
\newlabel{p_distr_lamina}{{11}{9}}
\@writefile{lof}{\contentsline {figure}{\numberline {12}{\ignorespaces ???}}{9}}
\newlabel{p_distr_lamina}{{12}{9}}
\@writefile{lof}{\contentsline {figure}{\numberline {13}{\ignorespaces ???}}{9}}
\newlabel{p_distr_lamina}{{13}{9}}
\@writefile{toc}{\contentsline {subsection}{\numberline {2.3}Epistasia}{9}}
\@writefile{lof}{\contentsline {figure}{\numberline {14}{\ignorespaces ???}}{10}}
\newlabel{p_distr_lamina}{{14}{10}}
\@writefile{lof}{\contentsline {figure}{\numberline {15}{\ignorespaces ???}}{10}}
\newlabel{p_distr_lamina}{{15}{10}}
\@writefile{lof}{\contentsline {figure}{\numberline {16}{\ignorespaces ???}}{11}}
\newlabel{p_distr_lamina}{{16}{11}}
\@writefile{toc}{\contentsline {subsection}{\numberline {2.4}Resposta \IeC {\`a} sele\IeC {\c c}\IeC {\~a}o}{12}}
\@writefile{lof}{\contentsline {figure}{\numberline {17}{\ignorespaces ???}}{12}}
\newlabel{p_distr_lamina}{{17}{12}}
\@writefile{toc}{\contentsline {section}{\numberline {3}Arquitetura gen\IeC {\'e}tica}{12}}
\@writefile{toc}{\contentsline {subsection}{\numberline {3.1}Arquitetura gen\IeC {\'e}tica do Tipo 1}{12}}
\@writefile{toc}{\contentsline {subsection}{\numberline {3.2}Arquitetura gen\IeC {\'e}tica do Tipo 2}{13}}
\@writefile{toc}{\contentsline {subsection}{\numberline {3.3}Arquitetura gen\IeC {\'e}tica do Tipo 3}{13}}
\@writefile{toc}{\contentsline {subsection}{\numberline {3.4}Arquitetura mista}{13}}
\@writefile{toc}{\contentsline {subsection}{\numberline {3.5}Locos ou alelos?}{13}}
\@writefile{toc}{\contentsline {section}{\numberline {4}Marcadores moleculares}{13}}
\@writefile{toc}{\contentsline {section}{\numberline {5}M\IeC {\'e}todos de an\IeC {\'a}lise de QTLs}{15}}
\@writefile{toc}{\contentsline {section}{\numberline {6}Perspectivas futuras}{18}}
\@writefile{toc}{\contentsline {section}{\numberline {7}Bibliografia}{19}}
